[
  {
    "normalForm": "acheter",
    "translations": "to buy"
  },
  {
    "normalForm": "activer",
    "translations": "to activate"
  },
  {
    "normalForm": "amener",
    "translations": "to take"
  },
  {
    "normalForm": "aller",
    "translations": [ "to go" ]
  },
  {
    "normalForm": "avoir",
    "translations": "to have:*"
  }
]